{
  "albums" : {
    "href" : "https://api.spotify.com/v1/search?query=Rolling+Stones&offset=0&limit=20&type=album",
    "items" : [ {
      "album_type" : "album",
      "available_markets" : [ "CA", "US" ],
      "external_urls" : {
        "spotify" : "https://open.spotify.com/album/4l4u9e9jSbotSXNjYfOugy"
      },
      "href" : "https://api.spotify.com/v1/albums/4l4u9e9jSbotSXNjYfOugy",
      "id" : "4l4u9e9jSbotSXNjYfOugy",
      "images" : [ {
        "height" : 640,
        "url" : "https://i.scdn.co/image/f1d32b1a4e0f1d3c3b6904a19a94412d28f6b0d4",
        "width" : 640
      }, {
        "height" : 300,
        "url" : "https://i.scdn.co/image/d5a42898c978258ce20deb8fa4ac215c681f5dda",
        "width" : 300
      }, {
        "height" : 64,
        "url" : "https://i.scdn.co/image/1de640f0bf82a7a8057672673de525582ae4bc00",
        "width" : 64
      } ],
      "name" : "Let It Bleed",
      "type" : "album",
      "uri" : "spotify:album:4l4u9e9jSbotSXNjYfOugy"
    }, {
      "album_type" : "compilation",
      "available_markets" : [ "CA", "US" ],
      "external_urls" : {
        "spotify" : "https://open.spotify.com/album/0jeb7d3wCAf4K9bi3DKHzd"
      },
      "href" : "https://api.spotify.com/v1/albums/0jeb7d3wCAf4K9bi3DKHzd",
      "id" : "0jeb7d3wCAf4K9bi3DKHzd",
      "images" : [ {
        "height" : 619,
        "url" : "https://i.scdn.co/image/c83308db761d7b1bdadd91e71dbaaf78a4a1b0c3",
        "width" : 640
      }, {
        "height" : 290,
        "url" : "https://i.scdn.co/image/1522fa20021323c7b56c0833b2d3baa4d8b98f09",
        "width" : 300
      }, {
        "height" : 62,
        "url" : "https://i.scdn.co/image/f08c0f0955906dc494f80cde7a69bf5e63685495",
        "width" : 64
      } ],
      "name" : "The Rolling Stones Singles Box Set (1971-2006)",
      "type" : "album",
      "uri" : "spotify:album:0jeb7d3wCAf4K9bi3DKHzd"
    }, {
      "album_type" : "compilation",
      "available_markets" : [ "CA", "US" ],
      "external_urls" : {
        "spotify" : "https://open.spotify.com/album/1IeXdR2ptc5Jhxmko89CgE"
      },
      "href" : "https://api.spotify.com/v1/albums/1IeXdR2ptc5Jhxmko89CgE",
      "id" : "1IeXdR2ptc5Jhxmko89CgE",
      "images" : [ {
        "height" : 640,
        "url" : "https://i.scdn.co/image/179aa80ad0b080ada241be5b6fd8a12474d7dcb1",
        "width" : 638
      }, {
        "height" : 300,
        "url" : "https://i.scdn.co/image/4cf23c1acda761604aa2d81b9e279db1ad72ede0",
        "width" : 299
      }, {
        "height" : 64,
        "url" : "https://i.scdn.co/image/4d2e82dda6ea5a9cfc2a1eda1f457601f75ad1d3",
        "width" : 64
      } ],
      "name" : "Singles 1965-1967",
      "type" : "album",
      "uri" : "spotify:album:1IeXdR2ptc5Jhxmko89CgE"
    }, {
      "album_type" : "album",
      "available_markets" : [ "CA", "US" ],
      "external_urls" : {
        "spotify" : "https://open.spotify.com/album/7oS7E5bFMzE8PXTZQKW0ge"
      },
      "href" : "https://api.spotify.com/v1/albums/7oS7E5bFMzE8PXTZQKW0ge",
      "id" : "7oS7E5bFMzE8PXTZQKW0ge",
      "images" : [ {
        "height" : 574,
        "url" : "https://i.scdn.co/image/45aa4241b33b820bbe7d0feda34d63b2ad9997bd",
        "width" : 640
      }, {
        "height" : 269,
        "url" : "https://i.scdn.co/image/c3da1fb68e046f851c52f620171481265c407527",
        "width" : 300
      }, {
        "height" : 57,
        "url" : "https://i.scdn.co/image/085b2b0d79f78408bd1de68d4dd82d7573e3cacf",
        "width" : 64
      } ],
      "name" : "Beggars Banquet",
      "type" : "album",
      "uri" : "spotify:album:7oS7E5bFMzE8PXTZQKW0ge"
    }, {
      "album_type" : "album",
      "available_markets" : [ "CA", "MX", "US" ],
      "external_urls" : {
        "spotify" : "https://open.spotify.com/album/15XNBzVWARPMlu0sEbfBjJ"
      },
      "href" : "https://api.spotify.com/v1/albums/15XNBzVWARPMlu0sEbfBjJ",
      "id" : "15XNBzVWARPMlu0sEbfBjJ",
      "images" : [ {
        "height" : 640,
        "url" : "https://i.scdn.co/image/4497f03edf518e22d3ad73a0d90ad922a9d7dece",
        "width" : 640
      }, {
        "height" : 300,
        "url" : "https://i.scdn.co/image/bf1f1c80083755e4ac467a44318984ff8c681065",
        "width" : 300
      }, {
        "height" : 64,
        "url" : "https://i.scdn.co/image/897b8925f27b621093fd49ed3808f0fc956fcc5c",
        "width" : 64
      } ],
      "name" : "Tattoo You (2009 Re-Mastered)",
      "type" : "album",
      "uri" : "spotify:album:15XNBzVWARPMlu0sEbfBjJ"
    }, {
      "album_type" : "album",
      "available_markets" : [ "CA", "US" ],
      "external_urls" : {
        "spotify" : "https://open.spotify.com/album/1Jv2AqzhgsduUik2p4k3cS"
      },
      "href" : "https://api.spotify.com/v1/albums/1Jv2AqzhgsduUik2p4k3cS",
      "id" : "1Jv2AqzhgsduUik2p4k3cS",
      "images" : [ {
        "height" : 640,
        "url" : "https://i.scdn.co/image/6a88f1a7b653deedbb3753ee7d35f5c2a0505fc4",
        "width" : 640
      }, {
        "height" : 300,
        "url" : "https://i.scdn.co/image/cea9c270b541f4d5f3d816ecd0b2802a74152c6f",
        "width" : 300
      }, {
        "height" : 64,
        "url" : "https://i.scdn.co/image/17c345cf80bc7b4d01bfd92d91856ae3d7471847",
        "width" : 64
      } ],
      "name" : "Some Girls",
      "type" : "album",
      "uri" : "spotify:album:1Jv2AqzhgsduUik2p4k3cS"
    }, {
      "album_type" : "album",
      "available_markets" : [ "CA", "US" ],
      "external_urls" : {
        "spotify" : "https://open.spotify.com/album/2Q5MwpTmtjscaS34mJFXQQ"
      },
      "href" : "https://api.spotify.com/v1/albums/2Q5MwpTmtjscaS34mJFXQQ",
      "id" : "2Q5MwpTmtjscaS34mJFXQQ",
      "images" : [ {
        "height" : 640,
        "url" : "https://i.scdn.co/image/7ef7f6ba8e67acbd4a11ba6652c42815e1b4d685",
        "width" : 640
      }, {
        "height" : 300,
        "url" : "https://i.scdn.co/image/dda622101bf2f7948c8ecd800e692299525913d0",
        "width" : 300
      }, {
        "height" : 64,
        "url" : "https://i.scdn.co/image/89047aa34f91596806a543988e31141e68f8afc8",
        "width" : 64
      } ],
      "name" : "Out Of Our Heads (Remastered)",
      "type" : "album",
      "uri" : "spotify:album:2Q5MwpTmtjscaS34mJFXQQ"
    }, {
      "album_type" : "compilation",
      "available_markets" : [ "CA", "US" ],
      "external_urls" : {
        "spotify" : "https://open.spotify.com/album/0aqZJlugIkTUWW1sa4BANp"
      },
      "href" : "https://api.spotify.com/v1/albums/0aqZJlugIkTUWW1sa4BANp",
      "id" : "0aqZJlugIkTUWW1sa4BANp",
      "images" : [ {
        "height" : 574,
        "url" : "https://i.scdn.co/image/d9c974ac4ea17f450023c262938dbb41e07d97dd",
        "width" : 640
      }, {
        "height" : 269,
        "url" : "https://i.scdn.co/image/06796dbbef2cb825bf8138c4fb0f2928c0f13b4e",
        "width" : 300
      }, {
        "height" : 57,
        "url" : "https://i.scdn.co/image/090c193be434e5d27d511801e5d6706a0f59f42d",
        "width" : 64
      } ],
      "name" : "Hot Rocks (1964-1971) [Remastered]",
      "type" : "album",
      "uri" : "spotify:album:0aqZJlugIkTUWW1sa4BANp"
    }, {
      "album_type" : "album",
      "available_markets" : [ "CA", "MX", "US" ],
      "external_urls" : {
        "spotify" : "https://open.spotify.com/album/29m6DinzdaD0OPqWKGyMdz"
      },
      "href" : "https://api.spotify.com/v1/albums/29m6DinzdaD0OPqWKGyMdz",
      "id" : "29m6DinzdaD0OPqWKGyMdz",
      "images" : [ {
        "height" : 640,
        "url" : "https://i.scdn.co/image/5a1cc7dd7df0971ad326a0d5d8053b518df92930",
        "width" : 640
      }, {
        "height" : 300,
        "url" : "https://i.scdn.co/image/52f86fbb21060109b2157a58f9a5928be7f97720",
        "width" : 300
      }, {
        "height" : 64,
        "url" : "https://i.scdn.co/image/c26819772f9a05750e75c2aa980a33715b34ae93",
        "width" : 64
      } ],
      "name" : "Sticky Fingers (Remastered)",
      "type" : "album",
      "uri" : "spotify:album:29m6DinzdaD0OPqWKGyMdz"
    }, {
      "album_type" : "album",
      "available_markets" : [ "CA", "MX", "US" ],
      "external_urls" : {
        "spotify" : "https://open.spotify.com/album/0MDhZ0yRkugNEg7PmMMUE8"
      },
      "href" : "https://api.spotify.com/v1/albums/0MDhZ0yRkugNEg7PmMMUE8",
      "id" : "0MDhZ0yRkugNEg7PmMMUE8",
      "images" : [ {
        "height" : 640,
        "url" : "https://i.scdn.co/image/c1b81192a99208baff0bb054a681463356ca549d",
        "width" : 640
      }, {
        "height" : 300,
        "url" : "https://i.scdn.co/image/b5eb334db965a43211a3b1a34c551ac979b869f6",
        "width" : 300
      }, {
        "height" : 64,
        "url" : "https://i.scdn.co/image/9a74140846c4b1ed67bae939fb11f08df51c7780",
        "width" : 64
      } ],
      "name" : "The Rolling Stones No. 2",
      "type" : "album",
      "uri" : "spotify:album:0MDhZ0yRkugNEg7PmMMUE8"
    }, {
      "album_type" : "compilation",
      "available_markets" : [ "CA", "US" ],
      "external_urls" : {
        "spotify" : "https://open.spotify.com/album/0ACOqjq9mQuCZry2kj5zkB"
      },
      "href" : "https://api.spotify.com/v1/albums/0ACOqjq9mQuCZry2kj5zkB",
      "id" : "0ACOqjq9mQuCZry2kj5zkB",
      "images" : [ {
        "height" : 574,
        "url" : "https://i.scdn.co/image/24af3101b887b0d9dbe33ebed073c742985cc3a6",
        "width" : 640
      }, {
        "height" : 269,
        "url" : "https://i.scdn.co/image/9e9e7edee6e4802ff910844387a7aef92666d7b7",
        "width" : 300
      }, {
        "height" : 57,
        "url" : "https://i.scdn.co/image/b3309e46d64ff9805ace040f78c6fdcc4eeb5621",
        "width" : 64
      } ],
      "name" : "The Rolling Stones Singles Collection: The London Years (Remastered)",
      "type" : "album",
      "uri" : "spotify:album:0ACOqjq9mQuCZry2kj5zkB"
    }, {
      "album_type" : "album",
      "available_markets" : [ "CA", "MX", "US" ],
      "external_urls" : {
        "spotify" : "https://open.spotify.com/album/0bJMFJ2XQwpO5nKTrYdUtX"
      },
      "href" : "https://api.spotify.com/v1/albums/0bJMFJ2XQwpO5nKTrYdUtX",
      "id" : "0bJMFJ2XQwpO5nKTrYdUtX",
      "images" : [ {
        "height" : 640,
        "url" : "https://i.scdn.co/image/4dfa7093528fcc2528b11533ba00396ea2303c76",
        "width" : 640
      }, {
        "height" : 300,
        "url" : "https://i.scdn.co/image/23e1845e4a0c0e9d1c7cad109e13e60f6978f933",
        "width" : 300
      }, {
        "height" : 64,
        "url" : "https://i.scdn.co/image/85ddb4ff39f28c6065ea23fe742ea0b6a7b3eb63",
        "width" : 64
      } ],
      "name" : "The Rolling Stones (UK)",
      "type" : "album",
      "uri" : "spotify:album:0bJMFJ2XQwpO5nKTrYdUtX"
    }, {
      "album_type" : "album",
      "available_markets" : [ "CA", "US" ],
      "external_urls" : {
        "spotify" : "https://open.spotify.com/album/592dKHbXtiglWyt8AEet23"
      },
      "href" : "https://api.spotify.com/v1/albums/592dKHbXtiglWyt8AEet23",
      "id" : "592dKHbXtiglWyt8AEet23",
      "images" : [ {
        "height" : 574,
        "url" : "https://i.scdn.co/image/e1f5aad188a1cde58d68938bf40277840b14ff5d",
        "width" : 640
      }, {
        "height" : 269,
        "url" : "https://i.scdn.co/image/bc9916a34f5e452a37e86e509cae5338d80f4c01",
        "width" : 300
      }, {
        "height" : 57,
        "url" : "https://i.scdn.co/image/d2f064fb538fd53d559ac0e3f89192eb99e56d51",
        "width" : 64
      } ],
      "name" : "The Rolling Stones, Now! (Remastered)",
      "type" : "album",
      "uri" : "spotify:album:592dKHbXtiglWyt8AEet23"
    }, {
      "album_type" : "album",
      "available_markets" : [ "AD", "AR", "AT", "AU", "BE", "BG", "BO", "BR", "CA", "CH", "CL", "CO", "CR", "CY", "CZ", "DE", "DK", "DO", "EC", "EE", "ES", "FI", "FR", "GB", "GR", "GT", "HK", "HN", "HU", "IE", "IS", "IT", "LI", "LT", "LU", "LV", "MC", "MT", "MX", "MY", "NI", "NL", "NO", "NZ", "PA", "PE", "PH", "PL", "PT", "PY", "RO", "SE", "SG", "SI", "SK", "SV", "TR", "TW", "US", "UY" ],
      "external_urls" : {
        "spotify" : "https://open.spotify.com/album/2cuLhqah3qIUMbGgiJvdqx"
      },
      "href" : "https://api.spotify.com/v1/albums/2cuLhqah3qIUMbGgiJvdqx",
      "id" : "2cuLhqah3qIUMbGgiJvdqx",
      "images" : [ {
        "height" : 640,
        "url" : "https://i.scdn.co/image/14bbae737f04889c0d24818573935a452e95e72a",
        "width" : 640
      }, {
        "height" : 300,
        "url" : "https://i.scdn.co/image/5d75fed190d3ea3e46ac77c728e5bead5159f355",
        "width" : 300
      }, {
        "height" : 64,
        "url" : "https://i.scdn.co/image/019c6fe30fbacfff9ddcb027f7dee242e8ae3d08",
        "width" : 64
      } ],
      "name" : "Lullaby Renditions of The Rolling Stones",
      "type" : "album",
      "uri" : "spotify:album:2cuLhqah3qIUMbGgiJvdqx"
    }, {
      "album_type" : "single",
      "available_markets" : [ "CA", "MX", "US" ],
      "external_urls" : {
        "spotify" : "https://open.spotify.com/album/7mwFDKxAA2acz4bPCzhYcD"
      },
      "href" : "https://api.spotify.com/v1/albums/7mwFDKxAA2acz4bPCzhYcD",
      "id" : "7mwFDKxAA2acz4bPCzhYcD",
      "images" : [ {
        "height" : 640,
        "url" : "https://i.scdn.co/image/4fcf0babb8591a30a390f7e009f2e5d0d56e453c",
        "width" : 640
      }, {
        "height" : 300,
        "url" : "https://i.scdn.co/image/55d0bb2c53b6c4f4360c271a09c1da24bbd42fd8",
        "width" : 300
      }, {
        "height" : 64,
        "url" : "https://i.scdn.co/image/b098081cba6e4406f10499ce647605e5f0a2b0c3",
        "width" : 64
      } ],
      "name" : "The Rolling Stones",
      "type" : "album",
      "uri" : "spotify:album:7mwFDKxAA2acz4bPCzhYcD"
    }, {
      "album_type" : "album",
      "available_markets" : [ "CA", "MX", "US" ],
      "external_urls" : {
        "spotify" : "https://open.spotify.com/album/6V2b9KexGWk4jNmEqQfwkH"
      },
      "href" : "https://api.spotify.com/v1/albums/6V2b9KexGWk4jNmEqQfwkH",
      "id" : "6V2b9KexGWk4jNmEqQfwkH",
      "images" : [ {
        "height" : 640,
        "url" : "https://i.scdn.co/image/efafcca2a51c1d8ba448de3137f6c7839c1451de",
        "width" : 640
      }, {
        "height" : 300,
        "url" : "https://i.scdn.co/image/1eb55dd1eb9b890b24cfcf84222431f36f7c66ea",
        "width" : 300
      }, {
        "height" : 64,
        "url" : "https://i.scdn.co/image/3d2d0bbd1c8d7ffdef3b522d78455a5a833c0a3c",
        "width" : 64
      } ],
      "name" : "The Rolling Stones Rock and Roll Circus",
      "type" : "album",
      "uri" : "spotify:album:6V2b9KexGWk4jNmEqQfwkH"
    }, {
      "album_type" : "album",
      "available_markets" : [ "AD", "AR", "AT", "AU", "BE", "BG", "BO", "BR", "CA", "CH", "CL", "CO", "CR", "CY", "CZ", "DE", "DK", "DO", "EC", "EE", "ES", "FI", "FR", "GB", "GR", "GT", "HK", "HN", "HU", "IE", "IS", "IT", "LI", "LT", "LU", "LV", "MC", "MT", "MX", "MY", "NI", "NL", "NO", "NZ", "PA", "PE", "PH", "PL", "PT", "PY", "RO", "SE", "SG", "SI", "SK", "SV", "TR", "TW", "US", "UY" ],
      "external_urls" : {
        "spotify" : "https://open.spotify.com/album/6AreeZtGpLSgMdJqbNZxh7"
      },
      "href" : "https://api.spotify.com/v1/albums/6AreeZtGpLSgMdJqbNZxh7",
      "id" : "6AreeZtGpLSgMdJqbNZxh7",
      "images" : [ {
        "height" : 640,
        "url" : "https://i.scdn.co/image/80b1904cd5400450769e4e131d8c9e70284720fe",
        "width" : 640
      }, {
        "height" : 300,
        "url" : "https://i.scdn.co/image/e423ff5676c133bbf83259095cac9781f0acf0cd",
        "width" : 300
      }, {
        "height" : 64,
        "url" : "https://i.scdn.co/image/5cb6fc27d97368303dea8636d2088255e8a93100",
        "width" : 64
      } ],
      "name" : "Before the Rolling Stones",
      "type" : "album",
      "uri" : "spotify:album:6AreeZtGpLSgMdJqbNZxh7"
    }, {
      "album_type" : "single",
      "available_markets" : [ "CA", "US" ],
      "external_urls" : {
        "spotify" : "https://open.spotify.com/album/2XTVZxpAfoi1C54iSeKWxN"
      },
      "href" : "https://api.spotify.com/v1/albums/2XTVZxpAfoi1C54iSeKWxN",
      "id" : "2XTVZxpAfoi1C54iSeKWxN",
      "images" : [ {
        "height" : 640,
        "url" : "https://i.scdn.co/image/287658a124062097699f22271d6ed277e9bc1760",
        "width" : 640
      }, {
        "height" : 300,
        "url" : "https://i.scdn.co/image/382572cae8a18b3cf35b12468d88daccabba1b37",
        "width" : 300
      }, {
        "height" : 64,
        "url" : "https://i.scdn.co/image/73e788836b909c0062d4029be0348743fadb2995",
        "width" : 64
      } ],
      "name" : "Rolling Stones T-Shirt",
      "type" : "album",
      "uri" : "spotify:album:2XTVZxpAfoi1C54iSeKWxN"
    }, {
      "album_type" : "album",
      "available_markets" : [ "AD", "AR", "AT", "AU", "BE", "BG", "BO", "BR", "CA", "CH", "CL", "CO", "CR", "CY", "CZ", "DE", "DK", "DO", "EC", "EE", "ES", "FI", "FR", "GB", "GR", "GT", "HK", "HN", "HU", "IE", "IS", "IT", "LI", "LT", "LU", "LV", "MC", "MT", "MX", "MY", "NI", "NL", "NO", "NZ", "PA", "PE", "PH", "PL", "PT", "PY", "RO", "SE", "SG", "SI", "SK", "SV", "TR", "TW", "US", "UY" ],
      "external_urls" : {
        "spotify" : "https://open.spotify.com/album/74qrlMjNRNHPgNKhxu9xun"
      },
      "href" : "https://api.spotify.com/v1/albums/74qrlMjNRNHPgNKhxu9xun",
      "id" : "74qrlMjNRNHPgNKhxu9xun",
      "images" : [ {
        "height" : 640,
        "url" : "https://i.scdn.co/image/55af6fea66f09ee7926eb11fa81fcb2bd9faecd2",
        "width" : 640
      }, {
        "height" : 300,
        "url" : "https://i.scdn.co/image/169b202509c897a09964620b47fdb085322fcd73",
        "width" : 300
      }, {
        "height" : 64,
        "url" : "https://i.scdn.co/image/88fe5ea189c743c591b469c826ec72f506f19df5",
        "width" : 64
      } ],
      "name" : "Paint It Black: An Alt Country Tribute To The Rolling Stones",
      "type" : "album",
      "uri" : "spotify:album:74qrlMjNRNHPgNKhxu9xun"
    }, {
      "album_type" : "compilation",
      "available_markets" : [ "CA", "US" ],
      "external_urls" : {
        "spotify" : "https://open.spotify.com/album/3BFaszw0cOLW0UAxWc0RmY"
      },
      "href" : "https://api.spotify.com/v1/albums/3BFaszw0cOLW0UAxWc0RmY",
      "id" : "3BFaszw0cOLW0UAxWc0RmY",
      "images" : [ {
        "height" : 640,
        "url" : "https://i.scdn.co/image/129c5e4adae209b5f33a9ad1233496352efbf069",
        "width" : 640
      }, {
        "height" : 300,
        "url" : "https://i.scdn.co/image/75a196d5553766a44d4de10da78b9b38c47ea869",
        "width" : 300
      }, {
        "height" : 64,
        "url" : "https://i.scdn.co/image/7fc04de15505bd197f1986f721c586b86f4a0abd",
        "width" : 64
      } ],
      "name" : "Jump Back - The Best Of The Rolling Stones, '71 - '93 (2009 Re-mastered)",
      "type" : "album",
      "uri" : "spotify:album:3BFaszw0cOLW0UAxWc0RmY"
    } ],
    "limit" : 20,
    "next" : "https://api.spotify.com/v1/search?query=Rolling+Stones&offset=20&limit=20&type=album",
    "offset" : 0,
    "previous" : null,
    "total" : 541
  }
}